            CPU           |  cache   |  lookup (µs)   |     array (µs)  | speedup (x)
Xeon E5-1650 v3 @ 3.50GHz | 15360 KB |  60011 ±  3667 |   29313 ±  2137 | 0.49
Xeon E5-2697 v3 @ 2.60GHz | 35840 KB |  66571 ±  7477 |   33197 ±  3619 | 0.50
Celeron G1610T  @ 2.30GHz |  2048 KB | 172090 ±   629 |  162328 ±   326 | 0.94
Core i3-3220T   @ 2.80GHz |  3072 KB | 111025 ±  5507 |  114415 ±  2528 | 1.03
Core i5-7200U   @ 2.50GHz |  3072 KB |  92447 ±  1494 |   95249 ±  1134 | 1.03
Xeon X3430      @ 2.40GHz |  8192 KB | 111303 ±   936 |  127647 ±  1503 | 1.15
Core i7 920     @ 2.67GHz |  8192 KB | 123161 ± 35113 |  156068 ± 45355 | 1.27
Xeon X5650      @ 2.67GHz | 12288 KB | 106015 ±  5364 |  140335 ±  6739 | 1.32
Core i7 870     @ 2.93GHz |  8192 KB |  77986 ±   429 |  106040 ±  1043 | 1.36
Core i7-6700    @ 3.40GHz |  8192 KB |  47854 ±   573 |   66893 ±  1367 | 1.40
Core i3-4150    @ 3.50GHz |  3072 KB |  76162 ±   983 |  113265 ±   239 | 1.49
Xeon X5650      @ 2.67GHz | 12288 KB | 101384 ±   796 |  152720 ±  2440 | 1.51
Core i7-3770T   @ 2.50GHz |  8192 KB |  69551 ±  1961 |  128929 ±  2631 | 1.85
